[{
  "name"      : "web-api",
  "script"    : "apiSrv.js",
  "exec_mode" : "fork"
}, {
  "name"      : "aws-worker",
  "script"    : "awsSrv.js",
  "exec_mode" : "fork"
}, {
  "name"      : "email-worker",
  "script"    : "emailSrv.js",
  "exec_mode" : "fork"
}]